Library\Bee\artifacts\mvdfrm\Unity.AI.Navigation.Editor.ConversionSystem.ref.dll_2613D097A21E7E4D.mvfrm
Library\Bee\artifacts\mvdfrm\Unity.AI.Navigation.Editor.ref.dll_8CBE958717E0A6DC.mvfrm
Library\Bee\artifacts\mvdfrm\Unity.AI.Navigation.Updater.ref.dll_C4FFC4A21D155600.mvfrm
Library\Bee\artifacts\mvdfrm\Unity.AI.Navigation.ref.dll_ABE60189B0EAAA25.mvfrm
Library\Bee\artifacts\mvdfrm\Unity.EditorCoroutines.Editor.ref.dll_44B23014301201CE.mvfrm
Library\Bee\artifacts\mvdfrm\Unity.Performance.Profile-Analyzer.Editor.ref.dll_6D5A44DF5A5FB85E.mvfrm
Library\Bee\artifacts\mvdfrm\Unity.PlasticSCM.Editor.ref.dll_61765147EED78A29.mvfrm
Library\Bee\artifacts\mvdfrm\Unity.Rider.Editor.ref.dll_58BAED9DE5C1964C.mvfrm
Library\Bee\artifacts\mvdfrm\Unity.TestTools.CodeCoverage.Editor.OpenCover.Model.ref.dll_7D2D2A0BE7D1BBA6.mvfrm
Library\Bee\artifacts\mvdfrm\Unity.TestTools.CodeCoverage.Editor.OpenCover.Mono.Reflection.ref.dll_9BE5EB9E39415533.mvfrm
Library\Bee\artifacts\mvdfrm\Unity.TestTools.CodeCoverage.Editor.ref.dll_56C535504CFBD4EC.mvfrm
Library\Bee\artifacts\mvdfrm\Unity.TextMeshPro.Editor.ref.dll_40C14F454DBEB703.mvfrm
Library\Bee\artifacts\mvdfrm\Unity.TextMeshPro.ref.dll_0220FBA39878038E.mvfrm
Library\Bee\artifacts\mvdfrm\Unity.Timeline.Editor.ref.dll_DBD85984573F0B85.mvfrm
Library\Bee\artifacts\mvdfrm\Unity.Timeline.ref.dll_7F91E8C8AE2BCEEC.mvfrm
Library\Bee\artifacts\mvdfrm\Unity.VSCode.Editor.ref.dll_A18F31222F35312C.mvfrm
Library\Bee\artifacts\mvdfrm\Unity.VisualScripting.Core.Editor.ref.dll_351F5978B923B1B0.mvfrm
Library\Bee\artifacts\mvdfrm\Unity.VisualScripting.Core.ref.dll_EA92E8A85D600211.mvfrm
Library\Bee\artifacts\mvdfrm\Unity.VisualScripting.Flow.Editor.ref.dll_B2504227C8023CF1.mvfrm
Library\Bee\artifacts\mvdfrm\Unity.VisualScripting.Flow.ref.dll_31A3C8FEDF6976C0.mvfrm
Library\Bee\artifacts\mvdfrm\Unity.VisualScripting.SettingsProvider.Editor.ref.dll_295465F8D4C4859B.mvfrm
Library\Bee\artifacts\mvdfrm\Unity.VisualScripting.Shared.Editor.ref.dll_FC9237B9DF88B7CA.mvfrm
Library\Bee\artifacts\mvdfrm\Unity.VisualScripting.State.Editor.ref.dll_C13AB9B8D4557B0C.mvfrm
Library\Bee\artifacts\mvdfrm\Unity.VisualScripting.State.ref.dll_695E51A145AA52F5.mvfrm
Library\Bee\artifacts\mvdfrm\Unity.VisualStudio.Editor.ref.dll_CFFC789CDF177EE0.mvfrm
Library\Bee\artifacts\mvdfrm\UnityEditor.UI.ref.dll_6A0DDEC5ED23C452.mvfrm
Library\Bee\artifacts\mvdfrm\UnityEngine.UI.ref.dll_2673B520F345ECBD.mvfrm
Library\Bee\artifacts\mvdfrm\UnityEditor.CoreModule.dll_FEC7847E2DA60424.mvfrm
Library\Bee\artifacts\mvdfrm\UnityEditor.DeviceSimulatorModule.dll_FFA3F399AADDFEDD.mvfrm
Library\Bee\artifacts\mvdfrm\UnityEditor.DiagnosticsModule.dll_1B38ADD38B5BB1EB.mvfrm
Library\Bee\artifacts\mvdfrm\UnityEditor.dll_8772851DB53DEC31.mvfrm
Library\Bee\artifacts\mvdfrm\UnityEditor.EditorToolbarModule.dll_AA8556FBD53D730D.mvfrm
Library\Bee\artifacts\mvdfrm\UnityEditor.GraphViewModule.dll_5FDE6C3CE4C14662.mvfrm
Library\Bee\artifacts\mvdfrm\UnityEditor.PresetsUIModule.dll_1B44A51EE7199E67.mvfrm
Library\Bee\artifacts\mvdfrm\UnityEditor.QuickSearchModule.dll_A6482EE0E432AE44.mvfrm
Library\Bee\artifacts\mvdfrm\UnityEditor.SceneTemplateModule.dll_CE24C7B9D42A1D45.mvfrm
Library\Bee\artifacts\mvdfrm\UnityEditor.SceneViewModule.dll_9E8E4F44D9E41370.mvfrm
Library\Bee\artifacts\mvdfrm\UnityEditor.TextCoreFontEngineModule.dll_31DDE8ED6A3BDD22.mvfrm
Library\Bee\artifacts\mvdfrm\UnityEditor.TextCoreTextEngineModule.dll_79C61F5EF9BF9640.mvfrm
Library\Bee\artifacts\mvdfrm\UnityEditor.UIBuilderModule.dll_B46719595779BF96.mvfrm
Library\Bee\artifacts\mvdfrm\UnityEditor.UIElementsModule.dll_E5ABEBF0D45508E0.mvfrm
Library\Bee\artifacts\mvdfrm\UnityEditor.UIElementsSamplesModule.dll_50E717B71774468D.mvfrm
Library\Bee\artifacts\mvdfrm\UnityEditor.UnityConnectModule.dll_48A4B46D3668C4DA.mvfrm
Library\Bee\artifacts\mvdfrm\UnityEngine.AccessibilityModule.dll_00CA3350D4A044E2.mvfrm
Library\Bee\artifacts\mvdfrm\UnityEngine.AIModule.dll_28862F71EC72B5F8.mvfrm
Library\Bee\artifacts\mvdfrm\UnityEngine.AndroidJNIModule.dll_63F4D4C41D7477B6.mvfrm
Library\Bee\artifacts\mvdfrm\UnityEngine.AnimationModule.dll_2E63E865BF1E1B08.mvfrm
Library\Bee\artifacts\mvdfrm\UnityEngine.ARModule.dll_E1F8F475499014C1.mvfrm
Library\Bee\artifacts\mvdfrm\UnityEngine.AssetBundleModule.dll_EA3161D246996336.mvfrm
Library\Bee\artifacts\mvdfrm\UnityEngine.AudioModule.dll_76BE2308962D79FA.mvfrm
Library\Bee\artifacts\mvdfrm\UnityEngine.ClothModule.dll_DDA68003704A58DE.mvfrm
Library\Bee\artifacts\mvdfrm\UnityEngine.ContentLoadModule.dll_8347BB13151C0B23.mvfrm
Library\Bee\artifacts\mvdfrm\UnityEngine.CoreModule.dll_21E857D0D5AB6F4F.mvfrm
Library\Bee\artifacts\mvdfrm\UnityEngine.CrashReportingModule.dll_CEDE0FC7C41F2A47.mvfrm
Library\Bee\artifacts\mvdfrm\UnityEngine.DirectorModule.dll_8E8B02ED9CC1992C.mvfrm
Library\Bee\artifacts\mvdfrm\UnityEngine.dll_BA16CBF613B17916.mvfrm
Library\Bee\artifacts\mvdfrm\UnityEngine.DSPGraphModule.dll_93DC64570F226A4D.mvfrm
Library\Bee\artifacts\mvdfrm\UnityEngine.GameCenterModule.dll_8E421EDEE3B568A7.mvfrm
Library\Bee\artifacts\mvdfrm\UnityEngine.GIModule.dll_C0C2787F88219E12.mvfrm
Library\Bee\artifacts\mvdfrm\UnityEngine.GridModule.dll_FF5973BEEE000546.mvfrm
Library\Bee\artifacts\mvdfrm\UnityEngine.HotReloadModule.dll_AFACA66B9A51368A.mvfrm
Library\Bee\artifacts\mvdfrm\UnityEngine.ImageConversionModule.dll_7142B3BB9CBDC455.mvfrm
Library\Bee\artifacts\mvdfrm\UnityEngine.IMGUIModule.dll_AF1DC26F5C5F0DDB.mvfrm
Library\Bee\artifacts\mvdfrm\UnityEngine.InputLegacyModule.dll_7B767CF0DE8B1927.mvfrm
Library\Bee\artifacts\mvdfrm\UnityEngine.InputModule.dll_DD33EAB90C659E9E.mvfrm
Library\Bee\artifacts\mvdfrm\UnityEngine.JSONSerializeModule.dll_60E1BC8CD3DBA56C.mvfrm
Library\Bee\artifacts\mvdfrm\UnityEngine.LocalizationModule.dll_068DF3D57F6C8A99.mvfrm
Library\Bee\artifacts\mvdfrm\UnityEngine.ParticleSystemModule.dll_21F059143230B5D5.mvfrm
Library\Bee\artifacts\mvdfrm\UnityEngine.PerformanceReportingModule.dll_11A157A6E858130E.mvfrm
Library\Bee\artifacts\mvdfrm\UnityEngine.Physics2DModule.dll_7B09D856601B129D.mvfrm
Library\Bee\artifacts\mvdfrm\UnityEngine.PhysicsModule.dll_DE3F7CB9A82F880B.mvfrm
Library\Bee\artifacts\mvdfrm\UnityEngine.ProfilerModule.dll_C0D13C24361B2039.mvfrm
Library\Bee\artifacts\mvdfrm\UnityEngine.PropertiesModule.dll_BB7D5E1D56A0CCE3.mvfrm
Library\Bee\artifacts\mvdfrm\UnityEngine.RuntimeInitializeOnLoadManagerInitializerModule.dll_C55045BFE8AD3D66.mvfrm
Library\Bee\artifacts\mvdfrm\UnityEngine.ScreenCaptureModule.dll_7AC96A11E847D1CE.mvfrm
Library\Bee\artifacts\mvdfrm\UnityEngine.SharedInternalsModule.dll_F553F29113EBBFA5.mvfrm
Library\Bee\artifacts\mvdfrm\UnityEngine.SpriteMaskModule.dll_776E916F0524FE21.mvfrm
Library\Bee\artifacts\mvdfrm\UnityEngine.SpriteShapeModule.dll_03928F2CFC3B9B40.mvfrm
Library\Bee\artifacts\mvdfrm\UnityEngine.StreamingModule.dll_E2F8D5B60EA5D246.mvfrm
Library\Bee\artifacts\mvdfrm\UnityEngine.SubstanceModule.dll_BFA3E9FF59F8D054.mvfrm
Library\Bee\artifacts\mvdfrm\UnityEngine.SubsystemsModule.dll_E21BF7D0D36CE634.mvfrm
Library\Bee\artifacts\mvdfrm\UnityEngine.TerrainModule.dll_F885F8287DEDD0F9.mvfrm
Library\Bee\artifacts\mvdfrm\UnityEngine.TerrainPhysicsModule.dll_226B01E74B73B062.mvfrm
Library\Bee\artifacts\mvdfrm\UnityEngine.TextCoreFontEngineModule.dll_B03D64407D399BED.mvfrm
Library\Bee\artifacts\mvdfrm\UnityEngine.TextCoreTextEngineModule.dll_F8259AB20CBD550B.mvfrm
Library\Bee\artifacts\mvdfrm\UnityEngine.TextRenderingModule.dll_A408DC1C9F7F51C3.mvfrm
Library\Bee\artifacts\mvdfrm\UnityEngine.TilemapModule.dll_97825FA995AAB202.mvfrm
Library\Bee\artifacts\mvdfrm\UnityEngine.TLSModule.dll_75F4165D73A45E1F.mvfrm
Library\Bee\artifacts\mvdfrm\UnityEngine.UIElementsModule.dll_E65A5938D699222B.mvfrm
Library\Bee\artifacts\mvdfrm\UnityEngine.UIModule.dll_23F9CD9F48B9BBA4.mvfrm
Library\Bee\artifacts\mvdfrm\UnityEngine.UmbraModule.dll_F192CF212354256D.mvfrm
Library\Bee\artifacts\mvdfrm\UnityEngine.UnityAnalyticsCommonModule.dll_ACE014EB0240B16C.mvfrm
Library\Bee\artifacts\mvdfrm\UnityEngine.UnityAnalyticsModule.dll_418FC9DDDE5807D1.mvfrm
Library\Bee\artifacts\mvdfrm\UnityEngine.UnityConnectModule.dll_3604387C30F0C585.mvfrm
Library\Bee\artifacts\mvdfrm\UnityEngine.UnityCurlModule.dll_618089972F320CF5.mvfrm
Library\Bee\artifacts\mvdfrm\UnityEngine.UnityTestProtocolModule.dll_0CA9CDA9716F9BE3.mvfrm
Library\Bee\artifacts\mvdfrm\UnityEngine.UnityWebRequestAssetBundleModule.dll_232281A8C9441F62.mvfrm
Library\Bee\artifacts\mvdfrm\UnityEngine.UnityWebRequestAudioModule.dll_899DAB856EC2DDA6.mvfrm
Library\Bee\artifacts\mvdfrm\UnityEngine.UnityWebRequestModule.dll_82E1BB65A7B25ED4.mvfrm
Library\Bee\artifacts\mvdfrm\UnityEngine.UnityWebRequestTextureModule.dll_96AAAF29EC58443B.mvfrm
Library\Bee\artifacts\mvdfrm\UnityEngine.UnityWebRequestWWWModule.dll_C2E7E00DFC7D1177.mvfrm
Library\Bee\artifacts\mvdfrm\UnityEngine.VehiclesModule.dll_064DFC6D16EB68C7.mvfrm
Library\Bee\artifacts\mvdfrm\UnityEngine.VFXModule.dll_F6D2AECC4A11C78C.mvfrm
Library\Bee\artifacts\mvdfrm\UnityEngine.VideoModule.dll_9BC7A77358BF959F.mvfrm
Library\Bee\artifacts\mvdfrm\UnityEngine.VRModule.dll_76CBF424EA74411C.mvfrm
Library\Bee\artifacts\mvdfrm\UnityEngine.WindModule.dll_983732F966E1EDB8.mvfrm
Library\Bee\artifacts\mvdfrm\UnityEngine.XRModule.dll_A98AB72973AE8E7A.mvfrm
Library\Bee\artifacts\mvdfrm\Unity.Android.Gradle.dll_DE01F2453F54600C.mvfrm
Library\Bee\artifacts\mvdfrm\Unity.Android.GradleProject.dll_44CD2D30F8C57469.mvfrm
Library\Bee\artifacts\mvdfrm\Unity.Android.Types.dll_14EC3A4E366EC6F0.mvfrm
Library\Bee\artifacts\mvdfrm\UnityEditor.iOS.Extensions.Common.dll_94719B6575281629.mvfrm
Library\Bee\artifacts\mvdfrm\UnityEditor.iOS.Extensions.Xcode.dll_0B9D86E0C9DFE733.mvfrm
Library\Bee\artifacts\mvdfrm\Unity.VisualScripting.Antlr3.Runtime.dll_2521796BDD14ED74.mvfrm