%YAML 1.1
%TAG !u! tag:unity3d.com,2011:
--- !u!1001 &2398343294196168246
PrefabInstance:
  m_ObjectHideFlags: 0
  serializedVersion: 2
  m_Modification:
    serializedVersion: 3
    m_TransformParent: {fileID: 0}
    m_Modifications:
    - target: {fileID: 100000, guid: 815ee0c72f7d458449549dcf107e69c5, type: 3}
      propertyPath: m_Name
      value: Red
      objectReference: {fileID: 0}
    - target: {fileID: 400000, guid: 815ee0c72f7d458449549dcf107e69c5, type: 3}
      propertyPath: m_LocalScale.x
      value: 2.610699
      objectReference: {fileID: 0}
    - target: {fileID: 400000, guid: 815ee0c72f7d458449549dcf107e69c5, type: 3}
      propertyPath: m_LocalScale.y
      value: 2.610699
      objectReference: {fileID: 0}
    - target: {fileID: 400000, guid: 815ee0c72f7d458449549dcf107e69c5, type: 3}
      propertyPath: m_LocalScale.z
      value: 2.610699
      objectReference: {fileID: 0}
    - target: {fileID: 400000, guid: 815ee0c72f7d458449549dcf107e69c5, type: 3}
      propertyPath: m_LocalPosition.x
      value: 2.96
      objectReference: {fileID: 0}
    - target: {fileID: 400000, guid: 815ee0c72f7d458449549dcf107e69c5, type: 3}
      propertyPath: m_LocalPosition.y
      value: 0
      objectReference: {fileID: 0}
    - target: {fileID: 400000, guid: 815ee0c72f7d458449549dcf107e69c5, type: 3}
      propertyPath: m_LocalPosition.z
      value: 14.75
      objectReference: {fileID: 0}
    - target: {fileID: 400000, guid: 815ee0c72f7d458449549dcf107e69c5, type: 3}
      propertyPath: m_LocalRotation.w
      value: 1
      objectReference: {fileID: 0}
    - target: {fileID: 400000, guid: 815ee0c72f7d458449549dcf107e69c5, type: 3}
      propertyPath: m_LocalRotation.x
      value: 0
      objectReference: {fileID: 0}
    - target: {fileID: 400000, guid: 815ee0c72f7d458449549dcf107e69c5, type: 3}
      propertyPath: m_LocalRotation.y
      value: -0
      objectReference: {fileID: 0}
    - target: {fileID: 400000, guid: 815ee0c72f7d458449549dcf107e69c5, type: 3}
      propertyPath: m_LocalRotation.z
      value: -0
      objectReference: {fileID: 0}
    - target: {fileID: 400000, guid: 815ee0c72f7d458449549dcf107e69c5, type: 3}
      propertyPath: m_LocalEulerAnglesHint.x
      value: 0
      objectReference: {fileID: 0}
    - target: {fileID: 400000, guid: 815ee0c72f7d458449549dcf107e69c5, type: 3}
      propertyPath: m_LocalEulerAnglesHint.y
      value: 0
      objectReference: {fileID: 0}
    - target: {fileID: 400000, guid: 815ee0c72f7d458449549dcf107e69c5, type: 3}
      propertyPath: m_LocalEulerAnglesHint.z
      value: 0
      objectReference: {fileID: 0}
    - target: {fileID: 13700000, guid: 815ee0c72f7d458449549dcf107e69c5, type: 3}
      propertyPath: m_DirtyAABB
      value: 0
      objectReference: {fileID: 0}
    - target: {fileID: 13700000, guid: 815ee0c72f7d458449549dcf107e69c5, type: 3}
      propertyPath: m_AABB.m_Center.x
      value: 0.008497089
      objectReference: {fileID: 0}
    - target: {fileID: 13700000, guid: 815ee0c72f7d458449549dcf107e69c5, type: 3}
      propertyPath: m_AABB.m_Center.y
      value: 0.5903304
      objectReference: {fileID: 0}
    - target: {fileID: 13700000, guid: 815ee0c72f7d458449549dcf107e69c5, type: 3}
      propertyPath: m_AABB.m_Center.z
      value: -0.071640596
      objectReference: {fileID: 0}
    - target: {fileID: 13700000, guid: 815ee0c72f7d458449549dcf107e69c5, type: 3}
      propertyPath: m_AABB.m_Extent.x
      value: 0.4101002
      objectReference: {fileID: 0}
    - target: {fileID: 13700000, guid: 815ee0c72f7d458449549dcf107e69c5, type: 3}
      propertyPath: m_AABB.m_Extent.y
      value: 0.5363274
      objectReference: {fileID: 0}
    - target: {fileID: 13700000, guid: 815ee0c72f7d458449549dcf107e69c5, type: 3}
      propertyPath: m_AABB.m_Extent.z
      value: 0.43635452
      objectReference: {fileID: 0}
    - target: {fileID: 13700000, guid: 815ee0c72f7d458449549dcf107e69c5, type: 3}
      propertyPath: m_Materials.Array.size
      value: 1
      objectReference: {fileID: 0}
    - target: {fileID: 13700000, guid: 815ee0c72f7d458449549dcf107e69c5, type: 3}
      propertyPath: m_Materials.Array.data[0]
      value: 
      objectReference: {fileID: 2100000, guid: 1e1f1927c650ff34b863fb6a7e76660a, type: 2}
    - target: {fileID: 13700000, guid: 815ee0c72f7d458449549dcf107e69c5, type: 3}
      propertyPath: m_Materials.Array.data[1]
      value: 
      objectReference: {fileID: 0}
    m_RemovedComponents: []
    m_RemovedGameObjects: []
    m_AddedGameObjects: []
    m_AddedComponents:
    - targetCorrespondingSourceObject: {fileID: 100000, guid: 815ee0c72f7d458449549dcf107e69c5, type: 3}
      insertIndex: -1
      addedObject: {fileID: 3867192954876976189}
    - targetCorrespondingSourceObject: {fileID: 100000, guid: 815ee0c72f7d458449549dcf107e69c5, type: 3}
      insertIndex: -1
      addedObject: {fileID: -4699297295147634821}
    - targetCorrespondingSourceObject: {fileID: 100000, guid: 815ee0c72f7d458449549dcf107e69c5, type: 3}
      insertIndex: -1
      addedObject: {fileID: -5038189243068519841}
  m_SourcePrefab: {fileID: 100100000, guid: 815ee0c72f7d458449549dcf107e69c5, type: 3}
--- !u!1 &2398343294196199574 stripped
GameObject:
  m_CorrespondingSourceObject: {fileID: 100000, guid: 815ee0c72f7d458449549dcf107e69c5, type: 3}
  m_PrefabInstance: {fileID: 2398343294196168246}
  m_PrefabAsset: {fileID: 0}
--- !u!114 &3867192954876976189
MonoBehaviour:
  m_ObjectHideFlags: 0
  m_CorrespondingSourceObject: {fileID: 0}
  m_PrefabInstance: {fileID: 0}
  m_PrefabAsset: {fileID: 0}
  m_GameObject: {fileID: 2398343294196199574}
  m_Enabled: 1
  m_EditorHideFlags: 0
  m_Script: {fileID: 11500000, guid: 15e381f5af034544a887356077d530a8, type: 3}
  m_Name: 
  m_EditorClassIdentifier: 
  tr: {fileID: 0}
  agent: {fileID: 0}
  normalmat: {fileID: 2100000, guid: 1e1f1927c650ff34b863fb6a7e76660a, type: 2}
  fearmat: {fileID: 2100000, guid: 9c0d4c331ea15494d8741cb7b42f138d, type: 2}
--- !u!54 &-4699297295147634821
Rigidbody:
  m_ObjectHideFlags: 0
  m_CorrespondingSourceObject: {fileID: 0}
  m_PrefabInstance: {fileID: 0}
  m_PrefabAsset: {fileID: 0}
  m_GameObject: {fileID: 2398343294196199574}
  serializedVersion: 4
  m_Mass: 1
  m_Drag: 0
  m_AngularDrag: 0.05
  m_CenterOfMass: {x: 0, y: 0, z: 0}
  m_InertiaTensor: {x: 1, y: 1, z: 1}
  m_InertiaRotation: {x: 0, y: 0, z: 0, w: 1}
  m_IncludeLayers:
    serializedVersion: 2
    m_Bits: 0
  m_ExcludeLayers:
    serializedVersion: 2
    m_Bits: 0
  m_ImplicitCom: 1
  m_ImplicitTensor: 1
  m_UseGravity: 1
  m_IsKinematic: 1
  m_Interpolate: 0
  m_Constraints: 116
  m_CollisionDetection: 0
--- !u!65 &-5038189243068519841
BoxCollider:
  m_ObjectHideFlags: 0
  m_CorrespondingSourceObject: {fileID: 0}
  m_PrefabInstance: {fileID: 0}
  m_PrefabAsset: {fileID: 0}
  m_GameObject: {fileID: 2398343294196199574}
  m_Material: {fileID: 0}
  m_IncludeLayers:
    serializedVersion: 2
    m_Bits: 0
  m_ExcludeLayers:
    serializedVersion: 2
    m_Bits: 0
  m_LayerOverridePriority: 0
  m_IsTrigger: 0
  m_ProvidesContacts: 0
  m_Enabled: 1
  serializedVersion: 3
  m_Size: {x: 0.8202004, y: 1.0726548, z: 0.87270904}
  m_Center: {x: 0.008497089, y: 0.5903304, z: -0.071640596}
